\relax 
\newlabel{ch:ack}{{}{v}}
\newlabel{ch:abstract}{{}{vi}}
\citation{narayani}
\@writefile{toc}{\contentsline {chapter}{\numberline {1}Introduction}{1}}
\@writefile{lof}{\addvspace {1em}}
\@writefile{lot}{\addvspace {1em}}
\newlabel{ch:intro}{{1}{1}}
\@writefile{toc}{\contentsline {section}{\numberline {1.1}Introduction}{1}}
\newlabel{sec:intro}{{1.1}{1}}
\citation{reppSieversEtc}
\citation{clynes}
\@writefile{toc}{\contentsline {section}{\numberline {1.2}Thinking about Music and shape}{2}}
\citation{seeing}
\citation{yemenite}
\citation{boyesbram}
\citation{poggi2002}
\citation{parton2009}
\citation{mcneillhandandmind}
\@writefile{lof}{\contentsline {figure}{\numberline {1.1}{\ignorespaces Examples of movement curves used by Sievers}}{3}}
\newlabel{fig:sievers}{{1.1}{3}}
\@writefile{toc}{\contentsline {subsection}{\numberline {1.2.1}Gestures in other musical styles}{3}}
\citation{lakoff1980}
\citation{lakoff1999}
\citation{lemangodoy}
\@writefile{toc}{\contentsline {subsection}{\numberline {1.2.2}Conceptual Metaphors and Gesture}{4}}
\newlabel{sec:conceptmeta}{{1.2.2}{4}}
\citation{leman2008}
\citation{lidov1987}
\citation{gritten2006music}
\citation{gritten2011new}
\citation{spence1997audiovisual}
\citation{stein1995neural}
\citation{platel}
\citation{johnsrude2000functional}
\citation{rusconi2006spatial}
\@writefile{toc}{\contentsline {subsection}{\numberline {1.2.3}Musical Gesture and Semiotics}{5}}
\@writefile{toc}{\contentsline {subsection}{\numberline {1.2.4}Neurological evidence for music spatialization}{5}}
\citation{zbikowski}
\citation{rusconi2006spatial}
\citation{eitan2010}
\citation{eitan2006music}
\citation{multisensory}
\citation{godoy2003}
\citation{jensenius2007action}
\citation{schaeffer1967musique}
\citation{shaeffer1999solfege}
\@writefile{toc}{\contentsline {section}{\numberline {1.3}Sound Objects and Action-Sound}{6}}
\citation{jensenius2007action}
\citation{mazzola}
\@writefile{toc}{\contentsline {section}{\numberline {1.4}Tonal Pitch Space}{7}}
\citation{bhattacharya}
\citation{SOM}
\citation{clayton2005time}
\citation{clayton2001time}
\citation{dahl2009gestures}
\citation{leante2009lotus}
\citation{clayton2011imagery}
\citation{clayton2013experience}
\citation{rahaim2008gesture}
\citation{pearson2013gesture}
\@writefile{toc}{\contentsline {section}{\numberline {1.5}Hindustani Music}{8}}
\citation{pearson2013gesture}
\citation{rahaim2008gesture}
\citation{roytrap}
\citation{clayton2005time}
\@writefile{toc}{\contentsline {subsection}{\numberline {1.5.1}Gesture in Hindustani Music}{9}}
\@writefile{toc}{\contentsline {subsection}{\numberline {1.5.2}Analysis of Gesture in HCM}{9}}
\@writefile{toc}{\contentsline {section}{\numberline {1.6}Contributions}{9}}
\citation{leante2009lotus}
\citation{rahaim2008gesture}
\@writefile{toc}{\contentsline {chapter}{\numberline {2}Analysis of Gesture}{11}}
\@writefile{lof}{\addvspace {1em}}
\@writefile{lot}{\addvspace {1em}}
\newlabel{ch:chap2}{{2}{11}}
\@writefile{toc}{\contentsline {section}{\numberline {2.1}Introduction}{11}}
\@writefile{toc}{\contentsline {subsection}{\numberline {2.1.1}The structure of \textit  {Khyal}}{12}}
\@writefile{toc}{\contentsline {section}{\numberline {2.2}Survey of Gestural Use}{12}}
\@writefile{toc}{\contentsline {subsection}{\numberline {2.2.1}Responses to Survey on Gesturing to Music}{12}}
\@writefile{lof}{\contentsline {figure}{\numberline {2.1}{\ignorespaces Results from the survey visualized as tag clouds. (a) Do gestures help? (b) How do you conceptualize improvisation (c) What is musically important for communication (d) Do you create these handshapes and gestures while performing?}}{13}}
\newlabel{fig:gestureresponses}{{2.1}{13}}
\citation{bressem}
\@writefile{toc}{\contentsline {section}{\numberline {2.3}Video Recording Dataset}{14}}
\@writefile{lot}{\contentsline {table}{\numberline {2.1}{\ignorespaces Ragas Chosen}}{14}}
\newlabel{ragaschosen}{{2.1}{14}}
\@writefile{toc}{\contentsline {subsection}{\numberline {2.3.1}Gestural Notation}{14}}
\@writefile{lot}{\contentsline {table}{\numberline {2.2}{\ignorespaces Shape and Orientation}}{15}}
\newlabel{shapeOrientation}{{2.2}{15}}
\@writefile{lot}{\contentsline {table}{\numberline {2.3}{\ignorespaces Movement}}{16}}
\newlabel{movement}{{2.3}{16}}
\@writefile{lot}{\contentsline {table}{\numberline {2.4}{\ignorespaces Position}}{17}}
\newlabel{position}{{2.4}{17}}
\@writefile{toc}{\contentsline {subsection}{\numberline {2.3.2}Terms indicating motion metaphors}{17}}
\citation{maxmsptools}
\citation{salamon2013melody}
\@writefile{lot}{\contentsline {table}{\numberline {2.5}{\ignorespaces Ornaments in HCM and their interpretation}}{18}}
\newlabel{ornaments}{{2.5}{18}}
\@writefile{toc}{\contentsline {subsection}{\numberline {2.3.3}Experiment 1: Analysis of Video Capture}{18}}
\@writefile{lof}{\contentsline {figure}{\numberline {2.2}{\ignorespaces Motiongram}}{18}}
\newlabel{fig:motiongram}{{2.2}{18}}
\@writefile{toc}{\contentsline {subsubsection}{\numberline {2.3.3.1}Methods}{18}}
\@writefile{lof}{\contentsline {figure}{\numberline {2.3}{\ignorespaces Video Analyzer output}}{19}}
\newlabel{fig:elanannotations}{{2.3}{19}}
\@writefile{lof}{\contentsline {figure}{\numberline {2.4}{\ignorespaces Pitch Analyzer output}}{19}}
\newlabel{fig:pitchanalyzer}{{2.4}{19}}
\@writefile{toc}{\contentsline {subsubsection}{\numberline {2.3.3.2}Correlational Analysis of Pitch}{19}}
\@writefile{lof}{\contentsline {figure}{\numberline {2.5}{\ignorespaces Pitch and motion data}}{20}}
\newlabel{fig:pitchcorr}{{2.5}{20}}
\@writefile{toc}{\contentsline {subsubsection}{\numberline {2.3.3.3}Results and Inferences}{20}}
\@writefile{toc}{\contentsline {subsection}{\numberline {2.3.4}Experiment 2: Annotation of Gesture}{20}}
\citation{elan}
\newlabel{events}{{12}{21}}
\@writefile{toc}{\contentsline {subsubsection}{\numberline {2.3.4.1}Methods}{21}}
\@writefile{lof}{\contentsline {figure}{\numberline {2.6}{\ignorespaces Annotations through Elan}}{21}}
\newlabel{Elan Annotations}{{2.6}{21}}
\@writefile{toc}{\contentsline {subsection}{\numberline {2.3.5}Observations about Musical Events}{21}}
\@writefile{toc}{\contentsline {paragraph}{\numberline {2.3.5.0.1}Pause}{21}}
\citation{rahaim2008gesture}
\@writefile{lof}{\contentsline {figure}{\numberline {2.7}{\ignorespaces Pause Gestures}}{22}}
\newlabel{fig:pausegesture}{{2.7}{22}}
\@writefile{toc}{\contentsline {paragraph}{\numberline {2.3.5.0.2}Height gesture and Pitch Height representation}{22}}
\@writefile{lof}{\contentsline {figure}{\numberline {2.8}{\ignorespaces Pitch Height (a) and Extreme Periphery representation (b)}}{22}}
\newlabel{fig:Pitch Height and Extreme Periphery}{{2.8}{22}}
\@writefile{toc}{\contentsline {paragraph}{\numberline {2.3.5.0.3}Use of Extreme Periphery}{22}}
\@writefile{toc}{\contentsline {paragraph}{\numberline {2.3.5.0.4}Musical Object Manipulation}{22}}
\@writefile{lof}{\contentsline {figure}{\numberline {2.9}{\ignorespaces Precision Grip Gesture used to manipulate an imaginary musical object}}{23}}
\newlabel{fig:grip}{{2.9}{23}}
\@writefile{lof}{\contentsline {figure}{\numberline {2.10}{\ignorespaces Themes and Variations}}{23}}
\newlabel{fig:themevariation}{{2.10}{23}}
\@writefile{toc}{\contentsline {paragraph}{\numberline {2.3.5.0.5}Theme and Variations}{23}}
\@writefile{lof}{\contentsline {figure}{\numberline {2.11}{\ignorespaces 'Sam' with a 'presenting' gesture}}{24}}
\newlabel{fig:samBharati}{{2.11}{24}}
\@writefile{toc}{\contentsline {paragraph}{\numberline {2.3.5.0.6}Precedence of Rhythmic Ornaments over Melodic}{24}}
\@writefile{lot}{\contentsline {table}{\numberline {2.6}{\ignorespaces Beat Gestures}}{24}}
\newlabel{table:beatgestures}{{2.6}{24}}
\citation{mcneilllevy}
\citation{mcneillhandandmind}
\citation{parrill}
\citation{workingmemory}
\@writefile{toc}{\contentsline {subsubsection}{\numberline {2.3.5.1}Inferences}{25}}
\@writefile{toc}{\contentsline {paragraph}{\numberline {2.3.5.1.1}Typology of Gestures}{25}}
\@writefile{toc}{\contentsline {paragraph}{\numberline {2.3.5.1.2}Rhythmic thinking}{25}}
\citation{hindiprosody}
\citation{urdughazal}
\citation{fery2010}
\@writefile{toc}{\contentsline {paragraph}{\numberline {2.3.5.1.3}Gesture and Working Memory}{26}}
\@writefile{toc}{\contentsline {paragraph}{\numberline {2.3.5.1.4}Articulations and Prosodic Content}{26}}
\@writefile{toc}{\contentsline {section}{\numberline {2.4}Gesture, Prosody and Music}{26}}
\@writefile{toc}{\contentsline {subsection}{\numberline {2.4.1}Experiment 3: Prosodic Stress and Composition}{26}}
\@writefile{toc}{\contentsline {paragraph}{\numberline {2.4.1.0.5}Prosody in speech}{26}}
\@writefile{toc}{\contentsline {subsubsection}{\numberline {2.4.1.1}Prosody in Hindi - Previous findings}{26}}
\citation{praat}
\@writefile{toc}{\contentsline {subsubsection}{\numberline {2.4.1.2}Methods}{27}}
\@writefile{toc}{\contentsline {paragraph}{\numberline {2.4.1.2.1}Experiment}{27}}
\@writefile{lof}{\contentsline {figure}{\numberline {2.12}{\ignorespaces Stress Points Annotations}}{28}}
\newlabel{fig:prosodicannotations}{{2.12}{28}}
\@writefile{toc}{\contentsline {subsubsection}{\numberline {2.4.1.3}Results}{28}}
\@writefile{toc}{\contentsline {subsubsection}{\numberline {2.4.1.4}Inferences}{28}}
\citation{parrill}
\citation{bressem}
\citation{muller2004}
\citation{kendon2004}
\@writefile{toc}{\contentsline {subsection}{\numberline {2.4.2}Experiment 4: Presenting Gesture in Spoken Hindi}{29}}
\@writefile{toc}{\contentsline {subsubsection}{\numberline {2.4.2.1}Methods}{30}}
\@writefile{toc}{\contentsline {subsection}{\numberline {2.4.3}Results}{31}}
\@writefile{lot}{\contentsline {table}{\numberline {2.7}{\ignorespaces The 'Presenting' Gesture in speech}}{31}}
\newlabel{table:presentingspeech}{{2.7}{31}}
\@writefile{toc}{\contentsline {subsection}{\numberline {2.4.4}Inferences}{31}}
\@writefile{toc}{\contentsline {section}{\numberline {2.5}Conclusions}{31}}
\@writefile{toc}{\contentsline {chapter}{\numberline {3}Music and Shape}{33}}
\@writefile{lof}{\addvspace {1em}}
\@writefile{lot}{\addvspace {1em}}
\newlabel{ch:chap3}{{3}{33}}
\@writefile{toc}{\contentsline {section}{\numberline {3.1}Introduction}{33}}
\@writefile{toc}{\contentsline {section}{\numberline {3.2}Experiment 1: Graphical Notation}{33}}
\@writefile{lof}{\contentsline {figure}{\numberline {3.1}{\ignorespaces Examples of melographs analyzed for 5 different articulation types.}}{34}}
\newlabel{fig:5samemelo}{{3.1}{34}}
\@writefile{lof}{\contentsline {figure}{\numberline {3.2}{\ignorespaces Sample question in the quiz task}}{34}}
\newlabel{fig:samplequestionnotation}{{3.2}{34}}
\@writefile{toc}{\contentsline {subsection}{\numberline {3.2.1}Method}{34}}
\@writefile{lof}{\contentsline {figure}{\numberline {3.3}{\ignorespaces Answers (a) and Weighted answers (b)}}{35}}
\newlabel{fig:results1}{{3.3}{35}}
\@writefile{toc}{\contentsline {subsection}{\numberline {3.2.2}Results}{35}}
\@writefile{lot}{\contentsline {table}{\numberline {3.1}{\ignorespaces Results of Notation Study}}{35}}
\newlabel{table:notationresults}{{3.1}{35}}
\citation{jorda2005digital}
\citation{dobrian2006nime}
\citation{cadoz2000gesture}
\citation{lerdahl1983generative}
\citation{cope2004virtual}
\citation{cope2005computer}
\citation{bcdeva}
\citation{ragamatic}
\citation{krishna2011identification}
\citation{ras2010advances}
\citation{bellur2012knowledge}
\citation{chordia}
\citation{itrace}
\citation{Jensenius}
\citation{Godoy}
\citation{dancetrace}
\citation{itrace}
\citation{kussner1}
\@writefile{toc}{\contentsline {section}{\numberline {3.3}Experiment 2: Sound Tracing}{36}}
\citation{rowell}
\citation{varna}
\@writefile{toc}{\contentsline {subsubsection}{\numberline {3.3.0.1}Stimuli Design}{37}}
\@writefile{toc}{\contentsline {subsection}{\numberline {3.3.1}Experimental Setup}{38}}
\@writefile{toc}{\contentsline {subsection}{\numberline {3.3.2}Qualitative Results}{38}}
\@writefile{lof}{\contentsline {figure}{\numberline {3.4}{\ignorespaces Four Phrase Categories}}{39}}
\newlabel{fig:fourCategories}{{3.4}{39}}
\@writefile{toc}{\contentsline {paragraph}{\numberline {3.3.2.0.1}Classifiable data across 4 categories}{39}}
\@writefile{lof}{\contentsline {figure}{\numberline {3.5}{\ignorespaces Ascending Phrase Envelope}}{39}}
\newlabel{fig:ascendingphrase}{{3.5}{39}}
\@writefile{toc}{\contentsline {paragraph}{\numberline {3.3.2.0.2}Ascending Phrase Bias}{40}}
\@writefile{lof}{\contentsline {figure}{\numberline {3.6}{\ignorespaces Differences in Articulation Types}}{40}}
\newlabel{fig:flatgamak}{{3.6}{40}}
\@writefile{toc}{\contentsline {paragraph}{\numberline {3.3.2.0.3}Articulation Representation}{40}}
\@writefile{lof}{\contentsline {figure}{\numberline {3.7}{\ignorespaces Differences in Repetitions of Tracings}}{40}}
\newlabel{fig:repeats}{{3.7}{40}}
\@writefile{toc}{\contentsline {paragraph}{\numberline {3.3.2.0.4}Reproducibility of sound tracings for repeated stimuli}{41}}
\@writefile{lof}{\contentsline {figure}{\numberline {3.8}{\ignorespaces Vertical Representations of Pitch}}{41}}
\newlabel{fig:pitchvert}{{3.8}{41}}
\@writefile{toc}{\contentsline {paragraph}{\numberline {3.3.2.0.5}Pitch verticality in tracings}{41}}
\@writefile{toc}{\contentsline {paragraph}{\numberline {3.3.2.0.6}Ambiguity in referencing base notes}{41}}
\@writefile{lof}{\contentsline {figure}{\numberline {3.9}{\ignorespaces Sketches of a child}}{42}}
\newlabel{fig:child}{{3.9}{42}}
\@writefile{toc}{\contentsline {paragraph}{\numberline {3.3.2.0.7}Special Cases}{42}}
\@writefile{lof}{\contentsline {figure}{\numberline {3.10}{\ignorespaces Sketches of a Harmonium Player}}{42}}
\newlabel{fig:harmonium}{{3.10}{42}}
\@writefile{toc}{\contentsline {subsection}{\numberline {3.3.3}Interface Design}{43}}
\@writefile{lof}{\contentsline {figure}{\numberline {3.11}{\ignorespaces Structure of TrAP}}{43}}
\newlabel{fig:Structure}{{3.11}{43}}
\@writefile{toc}{\contentsline {subsection}{\numberline {3.3.4}Tracing Approximation}{43}}
\@writefile{lof}{\contentsline {figure}{\numberline {3.12}{\ignorespaces Pitch data and corresponding user tracings for Ascending(a,b), Descending(c,d) and Stationary(c,d) phrases}}{44}}
\@writefile{toc}{\contentsline {subsection}{\numberline {3.3.5}Phrase Classification}{44}}
\@writefile{lof}{\contentsline {figure}{\numberline {3.13}{\ignorespaces Confusion Matrix for Phrase Classification}}{45}}
\newlabel{fig:confmat}{{3.13}{45}}
\@writefile{loa}{\contentsline {algocf}{\numberline {1}{\ignorespaces Phrase generation algorithm}}{45}}
\newlabel{algo1}{{1}{45}}
\@writefile{toc}{\contentsline {subsection}{\numberline {3.3.6}Tracing Segmentation}{46}}
\@writefile{toc}{\contentsline {subsection}{\numberline {3.3.7}Phrase Generation}{46}}
\@writefile{lof}{\contentsline {figure}{\numberline {3.14}{\ignorespaces A sample phrase generated by TrAP in Raga Yaman}}{46}}
\newlabel{fig:Structure}{{3.14}{46}}
\@writefile{lof}{\contentsline {figure}{\numberline {3.15}{\ignorespaces Sample tracing (a) and three TrAP generated melodic phrases in raga Yaman shown in (b), (c), (d) }}{47}}
\@writefile{toc}{\contentsline {subsection}{\numberline {3.3.8}Raga Grammar}{47}}
\@writefile{lot}{\contentsline {table}{\numberline {3.2}{\ignorespaces Pitch Sets in different Ragas}}{48}}
\newlabel{tab:Pitch}{{3.2}{48}}
\@writefile{toc}{\contentsline {section}{\numberline {3.4}Conclusions}{49}}
\citation{lerdahl2001tonal}
\citation{hindsangpad}
\citation{hindsangpad}
\@writefile{toc}{\contentsline {chapter}{\numberline {4}Tone Space and Generativity}{50}}
\@writefile{lof}{\addvspace {1em}}
\@writefile{lot}{\addvspace {1em}}
\newlabel{ch:chap4}{{4}{50}}
\@writefile{toc}{\contentsline {section}{\numberline {4.1}Introduction}{50}}
\@writefile{toc}{\contentsline {section}{\numberline {4.2}Experiment 1: Creating pitch tone space graphical models}{50}}
\citation{lerdahl2001tonal}
\citation{mazzola}
\citation{farbood}
\citation{generativemusgraph}
\citation{mirgraph}
\citation{kramikpustakmalika}
\citation{colorwheel}
\citation{narayani}
\citation{SOM}
\citation{probetone}
\citation{musiccolor}
\citation{probetone}
\@writefile{lof}{\contentsline {figure}{\numberline {4.1}{\ignorespaces Brief description of work}}{51}}
\newlabel{fig:ragadescriptors}{{4.1}{51}}
\@writefile{toc}{\contentsline {subsection}{\numberline {4.2.1}Related Work}{51}}
\@writefile{toc}{\contentsline {subsection}{\numberline {4.2.2}Raga Concepts}{52}}
\@writefile{toc}{\contentsline {subsubsection}{\numberline {4.2.2.1}Representation of Notes}{52}}
\@writefile{toc}{\contentsline {subsubsection}{\numberline {4.2.2.2}Descriptors of raga: Thaat}{52}}
\citation{kramikpustakmalika}
\citation{hindsangpad}
\@writefile{lot}{\contentsline {table}{\numberline {4.1}{\ignorespaces Thaats and their descriptors}}{53}}
\newlabel{table:thaats}{{4.1}{53}}
\@writefile{toc}{\contentsline {subsubsection}{\numberline {4.2.2.3}Other Descriptors of raga}{53}}
\@writefile{lot}{\contentsline {table}{\numberline {4.2}{\ignorespaces Jati - families of raga based on number of notes}}{53}}
\newlabel{table:jati}{{4.2}{53}}
\citation{gephi}
\citation{yifanhu}
\citation{forceatlas}
\@writefile{toc}{\contentsline {subsection}{\numberline {4.2.3}Ragas as Graphs}{54}}
\@writefile{toc}{\contentsline {subsubsection}{\numberline {4.2.3.1}Raga Dataset and Descriptors}{54}}
\@writefile{toc}{\contentsline {subsubsection}{\numberline {4.2.3.2}Graph Construction}{54}}
\@writefile{toc}{\contentsline {subsubsection}{\numberline {4.2.3.3}Graph Layout}{54}}
\@writefile{toc}{\contentsline {subsection}{\numberline {4.2.4}Algorithm}{54}}
\@writefile{toc}{\contentsline {paragraph}{\numberline {4.2.4.0.1}Energy Model}{55}}
\@writefile{toc}{\contentsline {paragraph}{\numberline {4.2.4.0.2}Attraction Force}{55}}
\@writefile{toc}{\contentsline {paragraph}{\numberline {4.2.4.0.3}Repulsion by Degree}{55}}
\@writefile{toc}{\contentsline {paragraph}{\numberline {4.2.4.0.4}LinLog Mode}{55}}
\@writefile{toc}{\contentsline {paragraph}{\numberline {4.2.4.0.5}Gravity}{55}}
\@writefile{toc}{\contentsline {paragraph}{\numberline {4.2.4.0.6}Scaling}{55}}
\@writefile{toc}{\contentsline {paragraph}{\numberline {4.2.4.0.7}Edge Weights}{55}}
\@writefile{toc}{\contentsline {paragraph}{\numberline {4.2.4.0.8}Hub Dissuasion}{55}}
\@writefile{lof}{\contentsline {figure}{\numberline {4.2}{\ignorespaces The complete network of ragas}}{56}}
\newlabel{fig:fullgraph}{{4.2}{56}}
\@writefile{toc}{\contentsline {section}{\numberline {4.3}Analysis of Graph}{56}}
\@writefile{toc}{\contentsline {subsection}{\numberline {4.3.1}Conceptual Distances in Tone Spaces}{56}}
\citation{narayani}
\citation{narayani}
\citation{jairazbhoy}
\@writefile{lof}{\contentsline {figure}{\numberline {4.3}{\ignorespaces Conceptual distances between diatonic notes (a) and Thaats visualized according to time of the day (b)}}{57}}
\newlabel{fig:conceptualdistances}{{4.3}{57}}
\@writefile{lof}{\contentsline {figure}{\numberline {4.4}{\ignorespaces Bhairav family ragas come together (a), Gorakh Kalyan and Narayani; Desh and Tilak Kamod – pairs of similar ragas \cite  {narayani}(b) }}{57}}
\newlabel{fig:bhairavnarayani}{{4.4}{57}}
\@writefile{toc}{\contentsline {subsubsection}{\numberline {4.3.1.1}Time of the Day and Thaat}{57}}
\citation{colorprimer}
\citation{itten}
\citation{matsuda}
\citation{colorschemer}
\citation{itten}
\citation{colorschemer}
\citation{colorwheel}
\@writefile{lof}{\contentsline {figure}{\numberline {4.5}{\ignorespaces Thaath space layout}}{58}}
\newlabel{fig:thaath}{{4.5}{58}}
\@writefile{lof}{\contentsline {figure}{\numberline {4.6}{\ignorespaces HSV wheel for color relationships (a) and Mapping Ragas to Color wheel relationships (b)}}{58}}
\@writefile{toc}{\contentsline {section}{\numberline {4.4}Mapping to Color Wheel}{58}}
\@writefile{lof}{\contentsline {figure}{\numberline {4.7}{\ignorespaces Representations of color harmony relationships}}{59}}
\newlabel{fig:colorharm}{{4.7}{59}}
\@writefile{toc}{\contentsline {subsection}{\numberline {4.4.1}Colour Schemes}{59}}
\@writefile{lof}{\contentsline {figure}{\numberline {4.8}{\ignorespaces Monochromatic Ragas (a), Analogous Ragas (b) }}{60}}
\@writefile{toc}{\contentsline {section}{\numberline {4.5}Raga wheel and color harmony}{60}}
\@writefile{toc}{\contentsline {subsection}{\numberline {4.5.1}Deriving affective Combinations}{60}}
\@writefile{toc}{\contentsline {subsubsection}{\numberline {4.5.1.1}Monochromatic}{60}}
\@writefile{lot}{\contentsline {table}{\numberline {4.3}{\ignorespaces Monochromatic ragas}}{60}}
\newlabel{table:monochrome}{{4.3}{60}}
\@writefile{toc}{\contentsline {subsubsection}{\numberline {4.5.1.2}Analogous}{60}}
\@writefile{lot}{\contentsline {table}{\numberline {4.4}{\ignorespaces Analogous ragas}}{61}}
\newlabel{table:analogous}{{4.4}{61}}
\@writefile{lof}{\contentsline {figure}{\numberline {4.9}{\ignorespaces Triadic Ragas (a), Complementary Ragas (b) }}{61}}
\@writefile{toc}{\contentsline {subsubsection}{\numberline {4.5.1.3}Complementary}{61}}
\@writefile{lot}{\contentsline {table}{\numberline {4.5}{\ignorespaces Complementary ragas}}{61}}
\newlabel{table:complementary}{{4.5}{61}}
\@writefile{toc}{\contentsline {subsubsection}{\numberline {4.5.1.4}Triadic}{61}}
\@writefile{lot}{\contentsline {table}{\numberline {4.6}{\ignorespaces Triadic ragas}}{62}}
\newlabel{table:triadic}{{4.6}{62}}
\@writefile{toc}{\contentsline {section}{\numberline {4.6}Conclusion}{62}}
\@writefile{toc}{\contentsline {chapter}{\numberline {5}Appendix}{63}}
\@writefile{lof}{\addvspace {1em}}
\@writefile{lot}{\addvspace {1em}}
\newlabel{ch:chap5}{{5}{63}}
\@writefile{toc}{\contentsline {section}{\numberline {5.1}Description of Hindustani Music Performances}{63}}
\@writefile{toc}{\contentsline {section}{\numberline {5.2}Raga}{63}}
\@writefile{toc}{\contentsline {section}{\numberline {5.3}Taal}{65}}
\@writefile{toc}{\contentsline {section}{\numberline {5.4}Questionnaire Survey of Performer Gestures}{65}}
\@writefile{toc}{\contentsline {chapter}{\numberline {6}Conclusions}{67}}
\@writefile{lof}{\addvspace {1em}}
\@writefile{lot}{\addvspace {1em}}
\newlabel{ch:conc}{{6}{67}}
\bibstyle{latex8}
\bibdata{simple}
\newlabel{ch:relatedPubs}{{6}{68}}
\bibcite{gephi}{1}
\bibcite{bellur2012knowledge}{2}
\bibcite{hindsangpad}{3}
\bibcite{kramikpustakmalika}{4}
\bibcite{bhattacharya}{5}
\bibcite{praat}{6}
\bibcite{bressem}{7}
\bibcite{cadoz2000gesture}{8}
\bibcite{probetone}{9}
\bibcite{SOM}{10}
\bibcite{clayton2001time}{11}
\bibcite{clayton2013experience}{12}
\bibcite{clayton2011imagery}{13}
\bibcite{clayton2005time}{14}
\bibcite{clynes}{15}
\bibcite{multisensory}{16}
\bibcite{boyesbram}{17}
\@writefile{toc}{{\@tempskipb 3.0ex plus 1pt\relax }}
\@writefile{toc}{\contentsline {chapter}{{Bibliography}}{69}}
\bibcite{cope2004virtual}{18}
\bibcite{cope2005computer}{19}
\bibcite{dahl2009gestures}{20}
\bibcite{bcdeva}{21}
\bibcite{dobrian2006nime}{22}
\bibcite{eitan2006music}{23}
\bibcite{eitan2010}{24}
\bibcite{farbood}{25}
\bibcite{fery2010}{26}
\bibcite{godoy2003}{27}
\bibcite{Godoy}{28}
\bibcite{lemangodoy}{29}
\bibcite{gritten2006music}{30}
\bibcite{gritten2011new}{31}
\bibcite{itrace}{32}
\bibcite{mirgraph}{33}
\bibcite{yifanhu}{34}
\bibcite{itten}{35}
\bibcite{forceatlas}{36}
\bibcite{jairazbhoy}{37}
\bibcite{jensenius2007action}{38}
\bibcite{Jensenius}{39}
\bibcite{maxmsptools}{40}
\bibcite{johnsrude2000functional}{41}
\bibcite{jorda2005digital}{42}
\bibcite{yemenite}{43}
\bibcite{kendon2004}{44}
\bibcite{krishna2011identification}{45}
\bibcite{lakoff1980}{46}
\bibcite{lakoff1999}{47}
\bibcite{leante2009lotus}{48}
\bibcite{leman2008}{49}
\bibcite{lerdahl2001tonal}{50}
\bibcite{lerdahl1983generative}{51}
\bibcite{lidov1987}{52}
\bibcite{urdughazal}{53}
\bibcite{matsuda}{54}
\bibcite{mazzola}{55}
\bibcite{generativemusgraph}{56}
\bibcite{mcneillhandandmind}{57}
\bibcite{mcneilllevy}{58}
\bibcite{workingmemory}{59}
\bibcite{muller2004}{60}
\bibcite{kussner1}{61}
\bibcite{colorprimer}{62}
\bibcite{musiccolor}{63}
\bibcite{parrill}{64}
\bibcite{parton2009}{65}
\bibcite{pearson2013gesture}{66}
\bibcite{hindiprosody}{67}
\bibcite{platel}{68}
\bibcite{poggi2002}{69}
\bibcite{rahaim2008gesture}{70}
\bibcite{ras2010advances}{71}
\bibcite{reppSieversEtc}{72}
\bibcite{rowell}{73}
\bibcite{roytrap}{74}
\bibcite{rusconi2006spatial}{75}
\bibcite{salamon2013melody}{76}
\bibcite{varna}{77}
\bibcite{dancetrace}{78}
\bibcite{schaeffer1967musique}{79}
\bibcite{shaeffer1999solfege}{80}
\bibcite{spence1997audiovisual}{81}
\bibcite{chordia}{82}
\bibcite{stein1995neural}{83}
\bibcite{seeing}{84}
\bibcite{ragamatic}{85}
\bibcite{elan}{86}
\bibcite{zbikowski}{87}
